Lab 3: Basics of dplyr and ggplot
…
library(dplyr)
library(babynames)

select() and filter()

We already talked about how to select columns by index or by names, and how to filter rows by index or by logical. Here we are going to repeat all that but this time well do it better.

Note that if you are reading your data from a source file, then youll need a function like read.csv or read.table to read the data.

Now we can select any set of columns using the select method. The first input is the name of the dataframe we are using, and the following inputs are the column names we want to select. Note that it is not necessary to wrap column names in quotation marks.

select(babynames, year, name, n)

## # A tibble: 1,924,665 x 3
##     year name          n
##    <dbl> <chr>     <int>
##  1  1880 Mary       7065
##  2  1880 Anna       2604
##  3  1880 Emma       2003
##  4  1880 Elizabeth  1939
##  5  1880 Minnie     1746
##  6  1880 Margaret   1578
##  7  1880 Ida        1472
##  8  1880 Alice      1414
##  9  1880 Bertha     1320
## 10  1880 Sarah      1288
## #  with 1,924,655 more rows

The equivelant command we learned in the last lab was

babynames[, c('year','name','n')]

## # A tibble: 1,924,665 x 3
##     year name          n
##    <dbl> <chr>     <int>
##  1  1880 Mary       7065
##  2  1880 Anna       2604
##  3  1880 Emma       2003
##  4  1880 Elizabeth  1939
##  5  1880 Minnie     1746
##  6  1880 Margaret   1578
##  7  1880 Ida        1472
##  8  1880 Alice      1414
##  9  1880 Bertha     1320
## 10  1880 Sarah      1288
## #  with 1,924,655 more rows

Similarly, the first input to filter() is the dataframe and then we want to write the logical conditions that should be evaluated on every row. Lets say we only want female names in the year 1975:

filter(babynames, sex == 'F')

## # A tibble: 1,138,293 x 5
##     year sex   name          n   prop
##    <dbl> <chr> <chr>     <int>  <dbl>
##  1  1880 F     Mary       7065 0.0724
##  2  1880 F     Anna       2604 0.0267
##  3  1880 F     Emma       2003 0.0205
##  4  1880 F     Elizabeth  1939 0.0199
##  5  1880 F     Minnie     1746 0.0179
##  6  1880 F     Margaret   1578 0.0162
##  7  1880 F     Ida        1472 0.0151
##  8  1880 F     Alice      1414 0.0145
##  9  1880 F     Bertha     1320 0.0135
## 10  1880 F     Sarah      1288 0.0132
## #  with 1,138,283 more rows

The equivalent command we covered in the last lab was

babynames[babynames$sex == 'F' , ]

## # A tibble: 1,138,293 x 5
##     year sex   name          n   prop
##    <dbl> <chr> <chr>     <int>  <dbl>
##  1  1880 F     Mary       7065 0.0724
##  2  1880 F     Anna       2604 0.0267
##  3  1880 F     Emma       2003 0.0205
##  4  1880 F     Elizabeth  1939 0.0199
##  5  1880 F     Minnie     1746 0.0179
##  6  1880 F     Margaret   1578 0.0162
##  7  1880 F     Ida        1472 0.0151
##  8  1880 F     Alice      1414 0.0145
##  9  1880 F     Bertha     1320 0.0135
## 10  1880 F     Sarah      1288 0.0132
## #  with 1,138,283 more rows

Now, what if we want to do those two together: we first want to filter rows that meet a specific condition and then we want to select only a specific column? To do this, we can use the so-called pipe operator %>% which essentially takes the output of the command on the left as input to the command on the right. Lets do an example:

babynames %>%
    filter(year == 1950 & sex == 'F') %>%
    select(name)

## # A tibble: 6,111 x 1
##    name    
##    <chr>   
##  1 Linda   
##  2 Mary    
##  3 Patricia
##  4 Barbara 
##  5 Susan   
##  6 Nancy   
##  7 Deborah 
##  8 Sandra  
##  9 Carol   
## 10 Kathleen
## #  with 6,101 more rows
…
Color and Fill

Now, we want to make things more interesting. I want to see the same plot but we want to break things down in a continent by continent so that we see which continents are doing better than others. To do so, well need to add continent to the group_by function

data_summary <- data %>%  
                  group_by(year, continent) %>% 
                  summarize(avg_life_exp = mean(lifeExp))
data_summary

## # A tibble: 60 x 3
## # Groups:   year [12]
##     year continent avg_life_exp
##    <int> <fct>            <dbl>
##  1  1952 Africa            39.1
##  2  1952 Americas          53.3
##  3  1952 Asia              46.3
##  4  1952 Europe            64.4
##  5  1952 Oceania           69.3
##  6  1957 Africa            41.3
##  7  1957 Americas          56.0
##  8  1957 Asia              49.3
##  9  1957 Europe            66.7
## 10  1957 Oceania           70.3
## #  with 50 more rows
…
